<svg width="79" height="79" viewBox="0 0 79 79" fill="none" xmlns="http://www.w3.org/2000/svg">
<path d="M17 54C17 55.2 17.8 56 19 56C20.2 56 21 55.2 21 54C21 50.6 23.6 48 27 48C30.4 48 33 50.6 33 54C33 55.2 33.8 56 35 56C36.2 56 37 55.2 37 54C37 50.6 35.2 47.4 32.2 45.6C33.4 44.4 34 42.8 34 41C34 37.2 30.8 34 27 34C23.2 34 20 37.2 20 41C20 42.6 20.6 44.2 21.8 45.6C18.8 47.4 17 50.6 17 54ZM24 41C24 39.4 25.4 38 27 38C28.6 38 30 39.4 30 41C30 42.6 28.6 44 27 44C25.4 44 24 42.6 24 41Z" fill="#6200EA"/>
<path d="M50.8002 39.4C53.0002 37.6 54.2002 34.8 54.2002 32C54.2002 26.4 49.8002 22 44.2002 22C38.6002 22 34.2002 26.4 34.2002 32C34.2002 33.4 34.6002 34.8 35.0002 36C35.4002 36.6 35.8002 37.2 36.0002 37.8C36.4002 38.4 37.0002 39 37.6002 39.6C37.6002 39.6 37.2002 39.8 37.0002 40C36.6002 40.4 36.4002 40.8 36.4002 41.4C36.4002 41.8 36.6002 42.2 36.8002 42.6C37.2002 43 37.8002 43.4 38.4002 43.4C38.6002 43.4 38.8002 43.4 39.0002 43.2C40.6002 42.4 42.2002 42 44.2002 42C50.8002 42 56.2002 47.4 56.2002 54C56.2002 55.2 57.0002 56 58.2002 56C59.4002 56 60.2002 55.2 60.2002 54C60.2002 47.8 56.6002 42 50.8002 39.4ZM44.2002 38C40.8002 38 38.2002 35.4 38.2002 32C38.2002 28.6 40.8002 26 44.2002 26C47.6002 26 50.2002 28.6 50.2002 32C50.2002 35.4 47.6002 38 44.2002 38Z" fill="#6200EA"/>
</svg>
